-1,-1,-1,-1,-1,-1,3,3,3,3,3,3,3,-1,-1,-1,3,8,3,-1,-1,-1,-1
-1,-1,-1,-1,-1,-1,3,2,2,2,2,2,3,-1,-1,-1,3,2,3,-1,-1,-1,-1
-1,-1,3,3,3,3,3,2,2,2,2,2,3,-1,-1,-1,3,2,3,-1,-1,-1,-1
-1,-1,3,2,2,2,2,2,2,2,2,2,3,-1,-1,-1,3,2,3,-1,-1,-1,-1
-1,-1,3,2,3,3,3,2,2,2,2,2,3,-1,-1,-1,3,2,3,-1,-1,-1,-1
-1,-1,3,2,3,-1,3,2,2,2,2,2,3,-1,-1,-1,3,2,3,-1,-1,-1,-1
-1,-1,3,2,3,-1,3,3,3,2,3,3,3,-1,3,3,3,2,3,3,3,-1,-1
-1,-1,3,2,3,-1,-1,-1,3,2,3,-1,-1,-1,3,2,2,2,2,2,3,-1,-1
-1,-1,3,3,3,-1,-1,-1,3,2,3,3,3,3,3,2,2,2,2,2,3,3,3
-1,-1,-1,-1,-1,-1,-1,-1,3,2,2,2,2,2,2,2,2,2,2,2,2,2,3
-1,-1,-1,-1,-1,-1,-1,-1,3,3,3,3,3,3,3,2,2,2,2,2,3,2,3
-1,-1,-1,-1,-1,-1,-1,-1,-1,-1,-1,-1,-1,-1,3,2,2,2,2,2,3,2,3
-1,-1,-1,-1,-1,-1,-1,-1,-1,-1,-1,-1,-1,-1,3,3,3,3,3,3,3,2,3
-1,-1,-1,-1,-1,-1,-1,-1,-1,-1,-1,-1,-1,-1,-1,-1,-1,-1,-1,-1,3,2,3
-1,-1,-1,-1,-1,-1,-1,-1,3,3,3,3,3,3,3,-1,-1,-1,-1,-1,3,2,3
-1,-1,-1,-1,-1,-1,-1,-1,3,2,2,2,2,2,3,-1,-1,-1,-1,-1,3,2,3
-1,-1,3,3,3,3,3,3,3,2,2,2,2,2,3,3,3,3,3,3,3,2,3
-1,-1,3,2,2,2,2,2,2,2,2,2,2,2,2,2,2,2,2,2,2,2,3
-1,-1,3,2,3,3,3,3,3,2,2,2,2,2,3,3,3,3,3,3,3,3,3
-1,-1,3,2,3,-1,-1,-1,3,2,2,2,2,2,3,-1,-1,-1,-1,-1,-1,-1,-1
-1,-1,3,2,3,3,3,3,3,3,3,3,3,3,3,3,3,3,3,3,3,3,3
-1,-1,3,2,2,2,2,2,2,2,2,2,2,2,2,2,2,2,2,2,2,2,7
-1,-1,3,3,3,3,3,3,3,3,3,3,3,3,3,3,3,3,3,3,3,3,3
